{
  "checks": {
    "load_metrics": {
      "type": "metric",
      "command": "metrics-load.rb --scheme PDNS.hammad-VirtualBox.cpu",
      "standalone": true,
      "interval": 60,
      "handler": "graphite-plain",
      "output_format" : "graphite_plaintext"
    }
  }
}
